module spiderdocs

go 1.21

require (
	github.com/JohannesKaufmann/html-to-markdown v1.5.0
	github.com/PuerkitoBio/goquery v1.8.1
	github.com/SebastiaanKlippert/go-wkhtmltopdf v1.9.2
	github.com/chromedp/cdproto v0.0.0-20240102194822-c006b26f21c7
	github.com/chromedp/chromedp v0.9.3
	github.com/gocolly/colly v1.2.0
	github.com/google/uuid v1.5.0
	golang.org/x/net v0.20.0
)

require (
	github.com/andybalholm/cascadia v1.3.2 // indirect
	github.com/antchfx/htmlquery v1.3.0 // indirect
	github.com/antchfx/xmlquery v1.3.18 // indirect
	github.com/antchfx/xpath v1.2.5 // indirect
	github.com/chromedp/sysutil v1.0.0 // indirect
	github.com/gobwas/glob v0.2.3 // indirect
	github.com/gobwas/httphead v0.1.0 // indirect
	github.com/gobwas/pool v0.2.1 // indirect
	github.com/gobwas/ws v1.3.2 // indirect
	github.com/golang/groupcache v0.0.0-20210331224755-41bb18bfe9da // indirect
	github.com/golang/protobuf v1.5.3 // indirect
	github.com/josharian/intern v1.0.0 // indirect
	github.com/kennygrant/sanitize v1.2.4 // indirect
	github.com/mailru/easyjson v0.7.7 // indirect
	github.com/saintfish/chardet v0.0.0-20230101081208-5e3ef4b5456d // indirect
	github.com/temoto/robotstxt v1.1.2 // indirect
	golang.org/x/sys v0.16.0 // indirect
	golang.org/x/text v0.14.0 // indirect
	google.golang.org/appengine v1.6.8 // indirect
	google.golang.org/protobuf v1.32.0 // indirect
)
